1425247408505571,1471, 1141
1425247408516064,1432, 1101
1425247408526612,1381, 1060
1425247408536689,1328, 1019
1425247408547330,1272, 977
1425247408557810,1224, 934
1425247408568328,1173, 892
1425247408579144,1119, 849
1425247408590334,1063, 806
1425247408601421,1004, 764
1425247408612383,952, 723
1425247408623441,900, 682
1425247408634511,843, 642
1425247408645499,794, 603
1425247408656486,744, 565
1425247408667404,693, 528
1425247408678439,643, 493
1425247408689427,599, 459
1425247408700408,556, 427
1425247408711388,516, 397
1425247408722522,475, 369
1425247408733475,436, 343
1425247408744572,399, 319
1425247408754790,367, 297
1425247408766093,337, 278
1425247408777095,308, 261
1425247408787079,284, 246
1425247408798150,258, 234
1425247408809258,239, 225
1425247408820288,222, 218
1425247408831286,207, 214
1425247408842310,192, 213
1425247408853357,185, 214
1425247408864349,181, 218
1425247408875436,178, 225
1425247408886525,177, 234
1425247408897681,177, 246
1425247408908789,177, 261
1425247408919819,177, 278
1425247408930742,176, 297
1425247408941833,177, 319
1425247408952915,177, 343
1425247408963868,177, 369
1425247408974874,177, 397
1425247408985792,177, 427
1425247408996787,182, 459
1425247409007796,192, 493
1425247409018811,208, 528
1425247409029919,228, 565
1425247409040998,259, 603
1425247409051895,291, 642
1425247409062957,334, 682
1425247409073435,383, 723
1425247409084453,437, 764
1425247409095546,495, 806
1425247409106469,552, 849
1425247409117456,611, 891
1425247409128391,666, 934
1425247409139670,722, 976
1425247409150747,779, 1019
1425247409161848,834, 1060
1425247409172823,884, 1101
1425247409183848,932, 1141
1425247409194791,984, 1180
1425247409205789,1040, 1218
1425247409216774,1090, 1255
1425247409227739,1140, 1290
1425247409238765,1183, 1324
1425247409250132,1240, 1356
1425247409261204,1277, 1386
1425247409272205,1313, 1414
1425247409283189,1352, 1440
1425247409294166,1389, 1464
1425247409305236,1422, 1486
1425247409316379,1451, 1505
1425247409327375,1483, 1522
1425247409338444,1512, 1537
1425247409349561,1531, 1549
1425247409360508,1549, 1558
1425247409371564,1567, 1565
1425247409382663,1585, 1569
1425247409393567,1595, 1570
1425247409404569,1601, 1569
1425247409415686,1608, 1565
1425247409426599,1611, 1558
1425247409437691,1612, 1549
1425247409448660,1614, 1537
1425247409459669,1614, 1522
1425247409470676,1614, 1505
1425247409481679,1613, 1486
1425247409492711,1613, 1464
1425247409503788,1614, 1440
1425247409514740,1612, 1414
1425247409525839,1611, 1386
1425247409536912,1611, 1356
1425247409547828,1606, 1324
1425247409558818,1593, 1290
1425247409569794,1571, 1255
1425247409580967,1542, 1218
1425247409592034,1510, 1180
1425247409602982,1471, 1141
1425247409613989,1429, 1101
1425247409625118,1376, 1060
1425247409636158,1321, 1019
1425247409647211,1270, 977
1425247409658323,1217, 934
1425247409669281,1169, 892
1425247409680348,1117, 849
1425247409691379,1063, 806
1425247409702373,1007, 764
1425247409713363,951, 723
1425247409724432,902, 682
1425247409735344,850, 642
1425247409746380,795, 603
1425247409757494,743, 565
1425247409768496,693, 528
1425247409779513,646, 493
1425247409790493,596, 459
1425247409801502,558, 427
1425247409812466,522, 397
1425247409823382,476, 369
1425247409834432,434, 343
1425247409845518,399, 319
1425247409856438,366, 297
1425247409867414,339, 278
1425247409878348,311, 261
1425247409889473,283, 246
1425247409900602,260, 234
1425247409911581,238, 225
1425247409922715,222, 218
1425247409933806,207, 214
1425247409944763,192, 213
1425247409955788,182, 214
1425247409966904,181, 218
1425247409977857,178, 225
1425247409988878,177, 234
1425247409999937,177, 246
1425247410010884,177, 261
1425247410021950,177, 278
1425247410033029,177, 297
1425247410043946,177, 319
1425247410054905,177, 343
1425247410065881,177, 369
1425247410076872,177, 397
1425247410087859,177, 427
1425247410098847,182, 459
1425247410109898,192, 493
1425247410120951,208, 528
1425247410131915,228, 565
1425247410142471,256, 603
1425247410153445,292, 642
1425247410164498,335, 682
1425247410175599,387, 723
1425247410186566,439, 764
1425247410197616,493, 806
1425247410208937,555, 849
1425247410220029,614, 891
1425247410231077,667, 934
1425247410242134,723, 976
1425247410253131,775, 1019
1425247410264171,832, 1060
1425247410275122,882, 1101
1425247410285157,929, 1141
1425247410296190,981, 1180
1425247410307253,1042, 1218
1425247410318314,1089, 1255
1425247410329295,1138, 1290
1425247410340310,1181, 1324
1425247410351353,1231, 1356
1425247410362325,1278, 1386
1425247410373331,1317, 1414
1425247410384417,1354, 1440
1425247410395357,1391, 1464
1425247410406462,1424, 1486
1425247410417442,1455, 1505
1425247410428465,1483, 1522
1425247410439649,1509, 1537
1425247410450611,1531, 1549
1425247410461628,1549, 1558
1425247410472634,1568, 1565
1425247410483631,1586, 1569
1425247410494641,1595, 1570
1425247410505716,1601, 1569
1425247410516644,1609, 1565
1425247410527856,1612, 1558
1425247410539039,1613, 1549
1425247410550020,1611, 1537
1425247410561062,1613, 1522
1425247410572138,1614, 1505
1425247410583250,1613, 1486
1425247410594361,1613, 1464
1425247410605408,1614, 1440
1425247410616409,1612, 1414
1425247410627422,1611, 1386
1425247410638505,1611, 1356
1425247410649478,1606, 1324
1425247410660548,1593, 1290
1425247410671614,1571, 1255
1425247410682567,1544, 1218
1425247410693567,1510, 1180
1425247410704435,1472, 1141
1425247410715447,1428, 1101
1425247410726505,1377, 1060
1425247410737458,1322, 1019
1425247410748869,1265, 977
1425247410758840,1227, 934
1425247410770010,1174, 892
1425247410781089,1117, 849
1425247410792043,1059, 806
1425247410803148,1001, 764
1425247410814212,950, 723
1425247410825273,902, 682
1425247410836441,849, 642
1425247410847518,795, 603
1425247410858479,742, 565
1425247410869630,690, 528
1425247410880730,645, 493
1425247410891737,602, 459
1425247410902859,555, 427
1425247410914008,515, 397
1425247410925005,476, 369
1425247410936056,435, 343
1425247410947140,402, 319
1425247410958101,370, 297
1425247410969180,337, 278
1425247410980233,308, 261
1425247410991202,284, 246
1425247411002178,259, 234
1425247411013051,238, 225
1425247411024051,224, 218
1425247411035111,210, 214
1425247411046034,194, 213
1425247411057100,183, 214
1425247411068135,181, 218
1425247411079100,180, 225
1425247411090060,179, 234
1425247411100938,177, 246
1425247411111927,177, 261
1425247411123043,177, 278
1425247411134026,177, 297
1425247411145138,177, 319
1425247411156204,178, 343
1425247411167108,177, 369
1425247411178170,177, 397
1425247411189213,177, 427
1425247411200165,182, 459
1425247411210638,192, 493
1425247411221672,207, 528
1425247411232659,227, 565
1425247411243603,259, 603
1425247411254602,291, 642
1425247411265610,334, 682
1425247411276825,388, 723
1425247411287829,441, 764
1425247411298938,494, 806
1425247411309878,552, 849
1425247411320916,611, 891
1425247411331928,662, 934
1425247411342879,722, 976
1425247411353972,775, 1019
1425247411365035,831, 1060
1425247411376010,885, 1101
1425247411387002,932, 1141
1425247411398056,985, 1180
1425247411409022,1039, 1218
1425247411420135,1091, 1255
1425247411431177,1139, 1290
1425247411442223,1188, 1324
1425247411453339,1233, 1356
1425247411464319,1274, 1386
1425247411475337,1318, 1414
1425247411486442,1357, 1440
1425247411497394,1392, 1464
1425247411508421,1419, 1486
1425247411519461,1451, 1505
1425247411530394,1484, 1522
1425247411541516,1510, 1537
1425247411552591,1531, 1549
1425247411563551,1550, 1558
1425247411574652,1568, 1565
1425247411585807,1585, 1569
1425247411596808,1594, 1570
1425247411607864,1601, 1569
1425247411618967,1608, 1565
1425247411629895,1611, 1558
1425247411640866,1614, 1549
1425247411651634,1614, 1537
1425247411662607,1613, 1522
1425247411673678,1614, 1505
1425247411684635,1614, 1486
1425247411695706,1614, 1464
1425247411706775,1614, 1440
1425247411717761,1614, 1414
1425247411728796,1611, 1386
1425247411739881,1610, 1356
1425247411750839,1607, 1324
1425247411761948,1594, 1290
1425247411772571,1577, 1255
1425247411782721,1542, 1218
1425247411793909,1510, 1180
1425247411804977,1469, 1141
1425247411816080,1432, 1101
1425247411827096,1380, 1060
1425247411838107,1323, 1019
1425247411849078,1268, 977
1425247411860099,1220, 934
1425247411871212,1169, 892
1425247411882161,1111, 849
1425247411893317,1059, 806
1425247411904486,1000, 764
1425247411915459,954, 723
1425247411926483,903, 682
1425247411937476,847, 642
1425247411948434,795, 603
1425247411959469,744, 565
1425247411970543,693, 528
1425247411981484,645, 493
1425247411992568,601, 459
1425247412003622,556, 427
1425247412014597,515, 397
1425247412025695,473, 369
1425247412036831,434, 343
1425247412047817,403, 319
1425247412058833,367, 297
1425247412069778,337, 278
1425247412080780,308, 261
1425247412091774,283, 246
1425247412102672,258, 234
1425247412113734,242, 225
1425247412124780,224, 218
1425247412135738,205, 214
1425247412146746,194, 213
1425247412157679,185, 214
1425247412168698,180, 218
1425247412179704,180, 225
1425247412190657,177, 234
1425247412201674,177, 246
1425247412212739,177, 261
1425247412223689,177, 278
1425247412234794,177, 297
1425247412245849,177, 319
1425247412256829,177, 343
1425247412267819,177, 369
1425247412278124,177, 397
1425247412289282,177, 427
1425247412300266,183, 459
1425247412311271,191, 493
1425247412322241,207, 528
1425247412333296,228, 565
1425247412344642,261, 603
1425247412355682,293, 642
1425247412366645,334, 682
1425247412377665,386, 723
1425247412388786,441, 764
1425247412399727,492, 806
1425247412410766,552, 849
1425247412421824,611, 891
1425247412432751,666, 934
1425247412443860,722, 976
1425247412454910,775, 1019
1425247412465861,831, 1060
1425247412476968,882, 1101
1425247412488081,933, 1141
1425247412499059,984, 1180
1425247412510178,1045, 1218
1425247412521253,1088, 1255
1425247412532220,1136, 1290
1425247412543254,1187, 1324
1425247412554337,1233, 1356
1425247412565280,1276, 1386
1425247412576393,1317, 1414
1425247412587543,1356, 1440
1425247412598599,1390, 1464
1425247412609595,1423, 1486
1425247412620569,1454, 1505
1425247412631696,1483, 1522
1425247412642785,1507, 1537
1425247412653739,1530, 1549
1425247412664771,1549, 1558
1425247412675764,1569, 1565
1425247412686729,1585, 1569
1425247412697766,1595, 1570
1425247412708842,1599, 1569
1425247412719770,1607, 1565
1425247412730880,1612, 1558
1425247412741937,1611, 1549
1425247412755892,1613, 1537
1425247412767814,1612, 1522
1425247412779413,1611, 1505
1425247412793153,1613, 1486
1425247412805696,1613, 1464
1425247412817539,1612, 1440
1425247412827456,1612, 1414
1425247412838683,1611, 1386
1425247412849836,1610, 1356
1425247412860804,1605, 1324
1425247412871809,1593, 1290
1425247412882837,1571, 1255
1425247412893896,1544, 1218
1425247412905017,1510, 1180
1425247412916128,1470, 1141
1425247412927110,1427, 1101
1425247412938203,1378, 1060
1425247412949331,1324, 1019
1425247412960294,1270, 977
1425247412971307,1220, 934
1425247412982376,1170, 892
1425247412993381,1110, 849
1425247413004363,1063, 806
1425247413015428,1002, 764
1425247413026362,953, 723
1425247413037340,904, 682
1425247413048301,853, 642
1425247413059312,795, 603
1425247413070425,738, 565
1425247413081373,693, 528
1425247413092404,649, 493
1425247413103410,602, 459
1425247413114345,557, 427
1425247413125418,517, 397
1425247413136441,475, 369
1425247413147449,438, 343
1425247413158459,402, 319
1425247413169390,367, 297
1425247413180401,337, 278
1425247413191391,308, 261
1425247413202350,283, 246
1425247413213385,259, 234
1425247413224453,239, 225
1425247413235449,223, 218
1425247413246832,208, 214
1425247413258031,193, 213
1425247413269023,185, 214
1425247413279809,181, 218
1425247413289914,179, 225
1425247413301034,179, 234
1425247413312222,177, 246
1425247413323257,176, 261
1425247413334396,177, 278
1425247413346279,179, 297
1425247413356061,177, 319
1425247413367122,178, 343
1425247413378041,177, 369
1425247413389199,178, 397
1425247413400284,178, 427
1425247413411193,182, 459
1425247413422498,192, 493
1425247413433579,208, 528
1425247413444532,228, 565
1425247413455561,259, 603
1425247413466637,292, 642
1425247413477584,334, 682
1425247413488677,387, 723
1425247413499750,440, 764
1425247413510729,490, 806
1425247413521736,548, 849
1425247413532709,614, 891
1425247413543777,670, 934
1425247413554903,723, 976
1425247413565780,769, 1019
1425247413576783,833, 1060
1425247413587874,889, 1101
1425247413598870,935, 1141
1425247413609979,983, 1180
1425247413620998,1041, 1218
1425247413631986,1089, 1255
1425247413643033,1139, 1290
1425247413654089,1185, 1324
1425247413665039,1229, 1356
1425247413676041,1275, 1386
1425247413686977,1319, 1414
1425247413697994,1358, 1440
1425247413709099,1391, 1464
1425247413720058,1422, 1486
1425247413731084,1454, 1505
1425247413742140,1484, 1522
1425247413753160,1508, 1537
1425247413763530,1527, 1549
1425247413773870,1545, 1558
1425247413784061,1565, 1565
1425247413795164,1583, 1569
1425247413806300,1595, 1570
1425247413817263,1600, 1569
1425247413828410,1608, 1565
1425247413839565,1612, 1558
1425247413850589,1612, 1549
1425247413861610,1611, 1537
1425247413872521,1613, 1522
1425247413883598,1613, 1505
1425247413894897,1612, 1486
1425247413906084,1613, 1464
1425247413917054,1612, 1440
1425247413928170,1614, 1414
1425247413939283,1612, 1386
1425247413950228,1608, 1356
1425247413961160,1606, 1324
1425247413972093,1595, 1290
1425247413983097,1572, 1255
1425247413994119,1544, 1218
1425247414005071,1511, 1180
1425247414016116,1470, 1141
1425247414027185,1427, 1101
1425247414038139,1379, 1060
1425247414049239,1325, 1019
1425247414060320,1270, 977
1425247414071284,1216, 934
1425247414082418,1168, 892
1425247414093487,1117, 849
1425247414104548,1063, 806
1425247414115673,1005, 764
1425247414126772,952, 723
1425247414137786,896, 682
1425247414148909,848, 642
1425247414159974,796, 603
1425247414170918,745, 565
1425247414181902,693, 528
1425247414192841,647, 493
1425247414203838,602, 459
1425247414214819,557, 427
1425247414225799,517, 397
1425247414236794,473, 369
1425247414247841,438, 343
1425247414258792,402, 319
1425247414269797,368, 297
1425247414280738,336, 278
1425247414291742,308, 261
1425247414302715,283, 246
1425247414313670,258, 234
1425247414324687,239, 225
1425247414335726,224, 218
1425247414346700,209, 214
1425247414357691,194, 213
1425247414368615,184, 214
1425247414379631,181, 218
1425247414390737,179, 225
1425247414401690,178, 234
1425247414412712,177, 246
1425247414423208,179, 261
1425247414434370,177, 278
1425247414445504,178, 297
1425247414456506,178, 319
1425247414467579,177, 343
1425247414478708,177, 369
1425247414490000,178, 397
1425247414500990,176, 427
1425247414511964,182, 459
1425247414522917,192, 493
1425247414533989,208, 528
1425247414545109,230, 565
1425247414556090,258, 603
1425247414567135,292, 642
1425247414578139,334, 682
1425247414589209,386, 723
1425247414600293,440, 764
1425247414611316,498, 806
1425247414622278,552, 849
1425247414633309,607, 891
1425247414644380,666, 934
1425247414655302,724, 976
1425247414666438,778, 1019
1425247414677503,831, 1060
1425247414688447,881, 1101
1425247414699453,932, 1141
1425247414710408,984, 1180
1425247414721424,1034, 1218
1425247414732551,1092, 1255
1425247414743491,1143, 1290
1425247414754843,1187, 1324
1425247414766120,1237, 1356
1425247414777072,1269, 1386
1425247414787119,1316, 1414
1425247414798186,1357, 1440
1425247414809320,1390, 1464
1425247414820515,1425, 1486
1425247414831516,1454, 1505
1425247414842524,1483, 1522
1425247414853625,1508, 1537
1425247414864585,1530, 1549
1425247414875603,1549, 1558
1425247414886615,1568, 1565
1425247414897707,1584, 1569
1425247414908816,1595, 1570
1425247414919896,1600, 1569
1425247414930864,1608, 1565
1425247414941902,1611, 1558
1425247414952980,1611, 1549
1425247414963916,1610, 1537
1425247414975029,1612, 1522
1425247414986112,1612, 1505
1425247414997061,1612, 1486
1425247415008054,1613, 1464
1425247415018974,1612, 1440
1425247415030023,1612, 1414
1425247415041237,1611, 1386
1425247415052215,1610, 1356
1425247415063226,1605, 1324
1425247415074332,1592, 1290
1425247415085273,1571, 1255
1425247415096308,1543, 1218
1425247415107389,1510, 1180
1425247415118303,1472, 1141
1425247415129369,1429, 1101
1425247415140453,1381, 1060
1425247415151418,1325, 1019
1425247415162510,1270, 977
1425247415173567,1221, 934
1425247415184565,1174, 892
1425247415195543,1113, 849
1425247415206510,1058, 806
1425247415217578,1001, 764
1425247415228719,952, 723
1425247415239582,902, 682
1425247415250609,849, 642
1425247415261660,795, 603
1425247415272605,743, 565
1425247415283662,692, 528
1425247415294731,647, 493
1425247415305665,603, 459
1425247415316685,556, 427
1425247415327609,515, 397
1425247415338724,475, 369
1425247415349833,434, 343
1425247415360815,397, 319
1425247415371820,369, 297
1425247415382799,340, 278
1425247415393752,309, 261
1425247415404776,283, 246
1425247415415843,259, 234
1425247415426750,239, 225
1425247415437758,223, 218
1425247415448704,208, 214
1425247415459701,194, 213
1425247415470679,184, 214
1425247415481667,181, 218
1425247415492174,180, 225
1425247415503164,179, 234
1425247415514247,179, 246
1425247415525288,177, 261
1425247415536252,177, 278
1425247415547370,177, 297
1425247415558691,178, 319
1425247415569658,177, 343
1425247415580804,177, 369
1425247415592010,177, 397
1425247415602999,178, 427
1425247415614072,185, 459
1425247415625218,190, 493
1425247415636264,207, 528
1425247415647314,229, 565
1425247415658441,259, 603
1425247415669405,292, 642
1425247415680415,334, 682
1425247415691522,388, 723
1425247415702470,442, 764
1425247415713494,495, 806
1425247415724507,552, 849
1425247415735365,611, 891
1425247415746396,666, 934
1425247415757526,722, 976
1425247415768556,779, 1019
1425247415779582,833, 1060
1425247415790700,881, 1101
1425247415801603,936, 1141
1425247415812708,984, 1180
1425247415823683,1040, 1218
1425247415834709,1090, 1255
1425247415845814,1138, 1290
1425247415856770,1188, 1324
1425247415867756,1232, 1356
1425247415878795,1273, 1386
1425247415889730,1318, 1414
1425247415901000,1357, 1440
1425247415912084,1393, 1464
1425247415923085,1425, 1486
1425247415934213,1452, 1505
1425247415945298,1483, 1522
1425247415956287,1507, 1537
1425247415967376,1529, 1549
1425247415978447,1549, 1558
1425247415989446,1568, 1565
1425247416000474,1584, 1569
1425247416011564,1593, 1570
1425247416022523,1598, 1569
1425247416033620,1607, 1565
1425247416044690,1611, 1558
1425247416055659,1611, 1549
1425247416066624,1612, 1537
1425247416077580,1613, 1522
1425247416088598,1612, 1505
1425247416099710,1612, 1486
1425247416110667,1613, 1464
1425247416121711,1612, 1440
1425247416132741,1613, 1414
1425247416143709,1611, 1386
1425247416154772,1609, 1356
1425247416165842,1603, 1324
1425247416176819,1593, 1290
1425247416187868,1571, 1255
1425247416198955,1543, 1218
1425247416209972,1511, 1180
1425247416220979,1466, 1141
1425247416232082,1429, 1101
1425247416243160,1382, 1060
1425247416254304,1324, 1019
1425247416265369,1263, 977
1425247416278778,1221, 934
1425247416288940,1163, 892
1425247416300044,1112, 849
1425247416311155,1060, 806
1425247416322229,1006, 764
1425247416333219,953, 723
1425247416344270,900, 682
1425247416355344,847, 642
1425247416366325,795, 603
1425247416377427,740, 565
1425247416388497,695, 528
1425247416399440,649, 493
1425247416410412,605, 459
1425247416421357,550, 427
1425247416432363,517, 397
1425247416443480,478, 369
1425247416454440,441, 343
1425247416465445,401, 319
1425247416476500,367, 297
1425247416487520,336, 278
1425247416498550,310, 261
1425247416509612,283, 246
1425247416520563,258, 234
1425247416531675,237, 225
1425247416542830,224, 218
1425247416553845,209, 214
1425247416564432,195, 213
1425247416575423,183, 214
1425247416586609,182, 218
1425247416597831,179, 225
1425247416608736,178, 234
1425247416619814,179, 246
1425247416629824,179, 261
1425247416640834,177, 278
1425247416651796,179, 297
1425247416662834,178, 319
1425247416673930,179, 343
1425247416684881,178, 369
1425247416695906,178, 397
1425247416706918,177, 427
1425247416717862,183, 459
1425247416728956,192, 493
1425247416740031,208, 528
1425247416750197,226, 565
1425247416761495,258, 603
1425247416772493,293, 642
1425247416783587,336, 682
1425247416794701,388, 723
1425247416805663,440, 764
1425247416816683,491, 806
1425247416827792,554, 849
1425247416838812,615, 891
1425247416849838,667, 934
1425247416860808,722, 976
1425247416871805,776, 1019
1425247416882787,831, 1060
1425247416893699,884, 1101
1425247416904885,933, 1141
1425247416916000,985, 1180
1425247416926974,1037, 1218
1425247416938057,1090, 1255
1425247416949095,1140, 1290
1425247416960030,1188, 1324
1425247416971059,1234, 1356
1425247416982148,1280, 1386
1425247416993123,1316, 1414
1425247417004164,1353, 1440
1425247417015103,1391, 1464
1425247417026113,1426, 1486
1425247417037089,1454, 1505
1425247417048036,1481, 1522
1425247417059045,1506, 1537
1425247417070131,1526, 1549
1425247417081051,1549, 1558
1425247417092060,1569, 1565
1425247417103001,1585, 1569
1425247417113985,1592, 1570
1425247417124979,1598, 1569
1425247417135934,1608, 1565
1425247417147096,1611, 1558
1425247417158182,1611, 1549
1425247417169172,1611, 1537
1425247417180183,1612, 1522
1425247417191263,1612, 1505
1425247417202184,1611, 1486
1425247417213173,1612, 1464
1425247417224089,1613, 1440
1425247417235114,1612, 1414
1425247417246765,1611, 1386
1425247417258048,1611, 1356
1425247417269020,1605, 1324
1425247417280026,1593, 1290
1425247417291019,1571, 1255
1425247417301970,1545, 1218
1425247417312953,1511, 1180
1425247417324037,1472, 1141
1425247417334956,1429, 1101
1425247417345971,1381, 1060
1425247417356901,1320, 1019
1425247417367916,1271, 977
1425247417378916,1225, 934
1425247417389861,1171, 892
1425247417400878,1114, 849
1425247417411942,1057, 806
1425247417422893,1002, 764
1425247417433897,954, 723
1425247417445075,894, 682
1425247417456062,848, 642
1425247417467048,797, 603
1425247417478002,740, 565
1425247417488994,694, 528
1425247417500023,649, 493
1425247417510984,602, 459
1425247417522002,558, 427
1425247417533054,513, 397
1425247417544001,475, 369
1425247417555111,439, 343
1425247417566217,401, 319
1425247417577169,367, 297
1425247417588318,336, 278
1425247417599462,304, 261
1425247417610403,282, 246
1425247417621475,260, 234
1425247417632025,238, 225
1425247417643129,221, 218
1425247417654246,207, 214
1425247417665239,194, 213
1425247417676268,185, 214
1425247417687343,181, 218
1425247417698536,179, 225
1425247417709589,179, 234
1425247417720650,179, 246
1425247417731662,178, 261
1425247417742777,179, 278
1425247417754059,177, 297
1425247417765819,178, 319
1425247417781512,178, 343
1425247417793043,178, 369
1425247417806103,179, 397
1425247417816393,178, 427
1425247417826427,180, 459
1425247417836571,190, 493
1425247417847849,209, 528
1425247417858799,229, 565
1425247417869836,259, 603
1425247417880837,293, 642
1425247417891789,336, 682
1425247417902968,388, 723
1425247417914037,442, 764
1425247417925012,494, 806
1425247417936096,552, 849
1425247417947196,613, 891
1425247417958121,667, 934
1425247417969217,723, 976
1425247417980248,776, 1019
1425247417991194,831, 1060
1425247418002198,883, 1101
1425247418013131,933, 1141
1425247418024140,979, 1180
1425247418035130,1040, 1218
1425247418046136,1093, 1255
1425247418057254,1144, 1290
1425247418068329,1189, 1324
1425247418079291,1230, 1356
1425247418090358,1274, 1386
1425247418101419,1320, 1414
1425247418112359,1357, 1440
1425247418123472,1393, 1464
1425247418134563,1424, 1486
1425247418145504,1453, 1505
1425247418156477,1482, 1522
1425247418167423,1505, 1537
1425247418178420,1531, 1549
1425247418189436,1549, 1558
1425247418200416,1567, 1565
1425247418211401,1583, 1569
1425247418222494,1595, 1570
1425247418233407,1600, 1569
1425247418244358,1607, 1565
1425247418255316,1611, 1558
1425247418266350,1611, 1549
1425247418277446,1610, 1537
1425247418288368,1611, 1522
1425247418299436,1611, 1505
1425247418310541,1611, 1486
1425247418321521,1611, 1464
1425247418332531,1611, 1440
1425247418343655,1611, 1414
1425247418354630,1610, 1386
1425247418365708,1608, 1356
1425247418376783,1604, 1324
1425247418387758,1593, 1290
1425247418398869,1568, 1255
1425247418409929,1543, 1218
1425247418420896,1511, 1180
1425247418431927,1470, 1141
1425247418443023,1427, 1101
1425247418453945,1379, 1060
1425247418465055,1325, 1019
1425247418476046,1271, 977
1425247418487039,1218, 934
1425247418498022,1169, 892
1425247418508258,1120, 849
1425247418519378,1060, 806
1425247418530321,1005, 764
1425247418541435,949, 723
1425247418552539,900, 682
1425247418563459,849, 642
1425247418574489,792, 603
1425247418585590,744, 565
1425247418596654,693, 528
1425247418607714,645, 493
1425247418618788,600, 459
1425247418629787,558, 427
1425247418640871,517, 397
1425247418651822,476, 369
1425247418662817,438, 343
1425247418673945,401, 319
1425247418684888,368, 297
1425247418695925,337, 278
1425247418706418,305, 261
1425247418717459,282, 246
1425247418728487,260, 234
1425247418739359,238, 225
1425247418749457,224, 218
1425247418760715,206, 214
1425247418771944,193, 213
1425247418783061,184, 214
1425247418794043,182, 218
1425247418805134,181, 225
1425247418816203,179, 234
1425247418827141,179, 246
1425247418838111,178, 261
1425247418848977,178, 278
1425247418859979,179, 297
1425247418870991,180, 319
1425247418881920,179, 343
1425247418892985,178, 369
1425247418904202,179, 397
1425247418915241,177, 427
1425247418926275,182, 459
1425247418937346,192, 493
1425247418948363,209, 528
1425247418959466,229, 565
1425247418970543,260, 603
1425247418981458,290, 642
1425247418992441,333, 682
1425247419003383,388, 723
1425247419014394,442, 764
1425247419025498,496, 806
1425247419036449,552, 849
1425247419047481,608, 891
1425247419058539,669, 934
1425247419069531,722, 976
1425247419080568,780, 1019
1425247419091628,834, 1060
1425247419102585,880, 1101
1425247419113690,932, 1141
1425247419124755,988, 1180
1425247419135738,1041, 1218
1425247419146753,1091, 1255
1425247419157780,1136, 1290
1425247419168761,1191, 1324
1425247419179881,1235, 1356
1425247419190852,1278, 1386
1425247419201831,1320, 1414
1425247419212872,1353, 1440
1425247419223837,1387, 1464
1425247419234857,1425, 1486
1425247419245990,1456, 1505
1425247419257053,1484, 1522
1425247419268168,1510, 1537
1425247419280234,1527, 1549
1425247419290388,1546, 1558
1425247419301508,1564, 1565
1425247419312619,1582, 1569
1425247419323582,1595, 1570
1425247419334650,1600, 1569
1425247419345686,1608, 1565
1425247419356671,1611, 1558
1425247419367739,1611, 1549
1425247419378799,1612, 1537
1425247419389752,1612, 1522
1425247419400856,1612, 1505
1425247419411936,1611, 1486
1425247419422886,1612, 1464
1425247419434020,1611, 1440
1425247419445089,1613, 1414
1425247419456060,1611, 1386
1425247419467060,1610, 1356
1425247419477995,1603, 1324
1425247419488996,1593, 1290
1425247419500016,1571, 1255
1425247419510985,1545, 1218
1425247419522073,1510, 1180
1425247419533094,1470, 1141
1425247419544116,1428, 1101
1425247419555191,1379, 1060
1425247419566290,1324, 1019
1425247419577236,1271, 977
1425247419588396,1219, 934
1425247419599512,1164, 892
1425247419610554,1110, 849
1425247419621602,1057, 806
1425247419632671,1006, 764
1425247419643601,953, 723
1425247419654662,899, 682
1425247419665736,846, 642
1425247419676747,794, 603
1425247419687758,741, 565
1425247419698691,693, 528
1425247419709692,647, 493
1425247419720709,600, 459
1425247419731695,554, 427
1425247419742773,517, 397
1425247419753874,478, 369
1425247419764876,439, 343
1425247419775375,401, 319
1425247419786372,369, 297
1425247419797437,332, 278
1425247419808498,307, 261
1425247419819417,283, 246
1425247419830508,259, 234
1425247419841818,237, 225
1425247419852829,221, 218
1425247419863894,207, 214
1425247419874970,193, 213
1425247419885964,183, 214
1425247419896958,182, 218
1425247419908102,180, 225
1425247419919153,178, 234
1425247419930265,179, 246
1425247419941342,178, 261
1425247419952343,178, 278
1425247419963344,179, 297
1425247419974379,178, 319
1425247419985353,178, 343
1425247419996337,177, 369
1425247420007267,179, 397
1425247420018188,178, 427
1425247420029263,182, 459
1425247420040268,191, 493
1425247420051324,210, 528
1425247420062375,229, 565
1425247420073294,261, 603
1425247420084383,293, 642
1425247420095479,336, 682
1425247420106431,388, 723
1425247420117415,441, 764
1425247420128395,495, 806
1425247420139392,551, 849
1425247420150614,613, 891
1425247420161690,669, 934
1425247420172691,721, 976
1425247420183824,777, 1019
1425247420194788,835, 1060
1425247420205790,887, 1101
1425247420216779,934, 1141
1425247420227756,979, 1180
1425247420238791,1041, 1218
1425247420249855,1093, 1255
1425247420260790,1148, 1290
1425247420271770,1189, 1324
1425247420282860,1231, 1356
1425247420293796,1273, 1386
1425247420304911,1319, 1414
1425247420315872,1357, 1440
1425247420326894,1393, 1464
1425247420337996,1426, 1486
1425247420348951,1454, 1505
1425247420359985,1482, 1522
1425247420370992,1511, 1537
1425247420381954,1528, 1549
1425247420393085,1544, 1558
1425247420404161,1564, 1565
1425247420415087,1583, 1569
1425247420426177,1594, 1570
1425247420437266,1598, 1569
1425247420448293,1606, 1565
1425247420459439,1611, 1558
1425247420470541,1611, 1549
1425247420481513,1611, 1537
1425247420492555,1611, 1522
1425247420503648,1611, 1505
1425247420514648,1611, 1486
1425247420525621,1612, 1464
1425247420536564,1611, 1440
1425247420547575,1611, 1414
1425247420558606,1611, 1386
1425247420569556,1609, 1356
1425247420580597,1604, 1324
1425247420591779,1593, 1290
1425247420602789,1569, 1255
1425247420613888,1545, 1218
1425247420624938,1510, 1180
1425247420635936,1469, 1141
1425247420646965,1428, 1101
1425247420658026,1380, 1060
1425247420668961,1323, 1019
1425247420680102,1271, 977
1425247420691169,1216, 934
1425247420702111,1170, 892
1425247420713118,1116, 849
1425247420724044,1059, 806
1425247420735069,1004, 764
1425247420746101,954, 723
1425247420756148,904, 682
1425247420767431,847, 642
1425247420778411,793, 603
1425247420789712,740, 565
1425247420801002,693, 528
1425247420811991,645, 493
1425247420822991,595, 459
1425247420833958,558, 427
1425247420844409,523, 397
1425247420855446,478, 369
1425247420866410,436, 343
1425247420877432,399, 319
1425247420888492,366, 297
1425247420899450,334, 278
1425247420909606,310, 261
1425247420920649,284, 246
1425247420931756,257, 234
1425247420942702,237, 225
1425247420953729,220, 218
1425247420964741,209, 214
1425247420975665,194, 213
1425247420986732,184, 214
1425247420997798,180, 218
1425247421008787,180, 225
1425247421019777,179, 234
1425247421030737,179, 246
1425247421041737,179, 261
1425247421052960,179, 278
1425247421064098,179, 297
1425247421075046,177, 319
1425247421086152,180, 343
1425247421097138,178, 369
1425247421108186,178, 397
1425247421119314,180, 427
1425247421130242,181, 459
1425247421141296,192, 493
1425247421152316,206, 528
1425247421163182,229, 565
1425247421174291,259, 603
1425247421185370,294, 642
1425247421196325,337, 682
1425247421207419,386, 723
1425247421218495,442, 764
1425247421229488,496, 806
1425247421240462,554, 849
1425247421251701,615, 891
1425247421262753,668, 934
1425247421273884,720, 976
1425247421284956,778, 1019
1425247421295938,835, 1060
1425247421306902,885, 1101
1425247421318014,933, 1141
1425247421328938,983, 1180
1425247421340023,1040, 1218
1425247421351068,1093, 1255
1425247421362119,1139, 1290
1425247421373221,1185, 1324
1425247421384129,1237, 1356
1425247421395137,1278, 1386
1425247421406146,1318, 1414
1425247421417064,1357, 1440
1425247421428123,1392, 1464
1425247421439221,1422, 1486
1425247421450192,1451, 1505
1425247421461171,1484, 1522
1425247421472137,1509, 1537
1425247421483142,1528, 1549
1425247421494248,1546, 1558
1425247421505217,1567, 1565
1425247421516221,1583, 1569
1425247421527241,1594, 1570
1425247421538161,1598, 1569
1425247421549095,1606, 1565
1425247421560018,1611, 1558
1425247421571036,1611, 1549
1425247421582054,1608, 1537
1425247421593097,1611, 1522
1425247421604124,1611, 1505
1425247421615211,1610, 1486
1425247421626174,1611, 1464
1425247421637197,1611, 1440
1425247421648359,1611, 1414
1425247421659388,1611, 1386
1425247421670396,1608, 1356
1425247421681470,1604, 1324
1425247421692368,1593, 1290
1425247421703390,1569, 1255
1425247421714326,1543, 1218
1425247421725323,1510, 1180
1425247421736345,1470, 1141
1425247421747359,1429, 1101
1425247421758418,1379, 1060
1425247421769465,1324, 1019
1425247421780473,1270, 977
1425247421791483,1218, 934
1425247421802566,1169, 892
1425247421813497,1114, 849
1425247421824483,1059, 806
1425247421835425,998, 764
1425247421846426,951, 723
1425247421857399,901, 682
1425247421868354,848, 642
1425247421879366,795, 603
1425247421890456,742, 565
1425247421901476,694, 528
1425247421912075,642, 493
1425247421923070,599, 459
1425247421934096,562, 427
1425247421945163,515, 397
1425247421956200,476, 369
1425247421967276,439, 343
1425247421978621,400, 319
1425247421989591,367, 297
1425247422000604,335, 278
1425247422011617,305, 261
1425247422022548,282, 246
1425247422033653,258, 234
1425247422044728,237, 225
1425247422055666,221, 218
1425247422066620,208, 214
1425247422077480,193, 213
1425247422088540,184, 214
1425247422099578,181, 218
1425247422110548,179, 225
1425247422121553,179, 234
1425247422132632,179, 246
1425247422143585,179, 261
1425247422154701,178, 278
1425247422165760,179, 297
1425247422176745,178, 319
1425247422187714,179, 343
1425247422198692,179, 369
1425247422209697,179, 397
1425247422220812,179, 427
1425247422231773,182, 459
1425247422242790,192, 493
1425247422253997,208, 528
1425247422264981,229, 565
1425247422275991,261, 603
1425247422286878,294, 642
1425247422296875,333, 682
1425247422307931,381, 723
1425247422318973,440, 764
1425247422330049,499, 806
1425247422341036,556, 849
1425247422352133,612, 891
1425247422363171,668, 934
1425247422374117,721, 976
1425247422385228,778, 1019
1425247422396305,835, 1060
1425247422407259,888, 1101
1425247422418374,935, 1141
1425247422429426,986, 1180
1425247422440378,1045, 1218
1425247422451379,1090, 1255
1425247422462361,1139, 1290
1425247422473369,1188, 1324
1425247422484350,1235, 1356
1425247422495318,1278, 1386
1425247422506345,1314, 1414
1425247422517412,1358, 1440
1425247422528329,1393, 1464
1425247422539404,1428, 1486
1425247422550523,1456, 1505
1425247422561536,1484, 1522
1425247422572527,1507, 1537
1425247422583560,1527, 1549
1425247422594594,1547, 1558
1425247422605687,1567, 1565
1425247422616575,1585, 1569
1425247422627563,1595, 1570
1425247422638624,1598, 1569
1425247422649618,1604, 1565
1425247422660614,1611, 1558
1425247422671693,1611, 1549
1425247422682604,1611, 1537
1425247422693570,1612, 1522
1425247422704557,1611, 1505
1425247422715571,1611, 1486
1425247422726679,1611, 1464
1425247422737639,1611, 1440
1425247422755583,1611, 1414
1425247422767794,1609, 1386
1425247422779363,1609, 1356
1425247422790184,1604, 1324
1425247422800855,1593, 1290
1425247422814631,1568, 1255
1425247422824819,1538, 1218
1425247422834916,1513, 1180
1425247422846004,1471, 1141
1425247422857197,1423, 1101
1425247422868204,1382, 1060
1425247422879333,1319, 1019
1425247422890432,1268, 977
1425247422901366,1221, 934
1425247422912578,1168, 892
1425247422923703,1112, 849
1425247422934646,1058, 806
1425247422945722,1004, 764
1425247422956786,950, 723
1425247422967760,897, 682
1425247422979548,849, 642
1425247422990670,789, 603
1425247423001746,737, 565
1425247423012715,690, 528
1425247423023685,645, 493
1425247423034623,603, 459
1425247423045921,557, 427
1425247423057070,511, 397
1425247423068135,473, 369
1425247423079097,440, 343
1425247423090081,403, 319
1425247423101044,367, 297
1425247423112064,336, 278
1425247423123028,307, 261
1425247423133984,283, 246
1425247423145019,258, 234
1425247423156154,237, 225
1425247423167177,223, 218
1425247423178198,209, 214
1425247423189282,194, 213
1425247423200208,184, 214
1425247423211309,181, 218
1425247423222144,179, 225
1425247423233145,179, 234
1425247423244264,179, 246
1425247423255221,179, 261
1425247423266228,179, 278
1425247423277231,179, 297
1425247423288204,178, 319
1425247423299286,175, 343
1425247423310421,180, 369
1425247423321392,179, 397
1425247423332492,180, 427
1425247423343553,184, 459
1425247423354525,192, 493
1425247423365505,209, 528
1425247423376598,230, 565
1425247423387543,260, 603
1425247423398659,296, 642
1425247423409643,337, 682
1425247423420651,390, 723
1425247423431618,437, 764
1425247423442528,497, 806
1425247423453641,556, 849
1425247423464747,615, 891
1425247423475694,669, 934
1425247423486775,725, 976
1425247423497855,778, 1019
1425247423508795,834, 1060
1425247423519785,885, 1101
1425247423530733,934, 1141
1425247423541730,987, 1180
1425247423552712,1041, 1218
1425247423563720,1088, 1255
1425247423574817,1143, 1290
1425247423585953,1195, 1324
1425247423597002,1235, 1356
1425247423608040,1279, 1386
1425247423619087,1318, 1414
1425247423630094,1358, 1440
1425247423641123,1392, 1464
1425247423652214,1426, 1486
1425247423663195,1454, 1505
1425247423674247,1484, 1522
1425247423685302,1507, 1537
1425247423696281,1528, 1549
1425247423707241,1549, 1558
1425247423718208,1565, 1565
1425247423729243,1582, 1569
1425247423740225,1594, 1570
1425247423751223,1598, 1569
1425247423762328,1606, 1565
1425247423773414,1608, 1558
1425247423784147,1610, 1549
1425247423794271,1611, 1537
1425247423805420,1611, 1522
1425247423816516,1611, 1505
1425247423827477,1611, 1486
1425247423838500,1611, 1464
1425247423849553,1611, 1440
1425247423860553,1611, 1414
1425247423871578,1611, 1386
1425247423882667,1609, 1356
1425247423893585,1604, 1324
1425247423904720,1592, 1290
1425247423915870,1568, 1255
1425247423926875,1543, 1218
1425247423937961,1509, 1180
1425247423949035,1469, 1141
1425247423959989,1429, 1101
1425247423971083,1377, 1060
1425247423982163,1322, 1019
1425247423993152,1271, 977
1425247424004133,1221, 934
1425247424015015,1168, 892
1425247424026065,1113, 849
1425247424037090,1054, 806
1425247424048046,1003, 764
1425247424058711,952, 723
1425247424069673,899, 682
1425247424080684,843, 642
1425247424091696,793, 603
1425247424102688,739, 565
1425247424113842,693, 528
1425247424123888,650, 493
1425247424134978,602, 459
1425247424145951,556, 427
1425247424156966,518, 397
1425247424167982,475, 369
1425247424178955,436, 343
1425247424190046,400, 319
1425247424201116,366, 297
1425247424212113,335, 278
1425247424223127,306, 261
1425247424234175,281, 246
1425247424245128,258, 234
1425247424256142,240, 225
1425247424267232,221, 218
1425247424278176,205, 214
1425247424289260,192, 213
1425247424300140,184, 214
1425247424311155,181, 218
1425247424322223,180, 225
1425247424333157,179, 234
1425247424344217,179, 246
1425247424355365,178, 261
1425247424366318,177, 278
1425247424377420,179, 297
1425247424388497,179, 319
1425247424399458,181, 343
1425247424410562,179, 369
1425247424421666,179, 397
1425247424432630,179, 427
1425247424443601,182, 459
1425247424454547,192, 493
1425247424465556,210, 528
1425247424476537,231, 565
1425247424487493,261, 603
1425247424498518,293, 642
1425247424509576,336, 682
1425247424520496,387, 723
1425247424531467,442, 764
1425247424542431,496, 806
1425247424553458,553, 849
1425247424564436,611, 891
1425247424575393,668, 934
1425247424586583,725, 976
1425247424597778,779, 1019
1425247424608720,835, 1060
1425247424619765,881, 1101
1425247424630834,935, 1141
1425247424641821,989, 1180
1425247424652824,1044, 1218
1425247424663968,1092, 1255
1425247424675004,1140, 1290
1425247424686047,1190, 1324
1425247424697120,1238, 1356
1425247424708097,1276, 1386
1425247424719196,1318, 1414
1425247424730264,1358, 1440
1425247424741207,1395, 1464
1425247424751277,1422, 1486
1425247424762514,1453, 1505
1425247424773746,1484, 1522
1425247424784874,1513, 1537
1425247424795873,1527, 1549
1425247424806922,1545, 1558
1425247424817998,1564, 1565
1425247424828958,1582, 1569
1425247424840070,1595, 1570
1425247424851047,1599, 1569
1425247424862062,1605, 1565
1425247424873022,1609, 1558
1425247424884005,1611, 1549
1425247424895022,1611, 1537
1425247424906164,1611, 1522
1425247424917192,1611, 1505
1425247424928200,1610, 1486
1425247424939298,1611, 1464
1425247424950227,1610, 1440
1425247424961306,1609, 1414
1425247424972417,1610, 1386
1425247424983377,1608, 1356
1425247424994358,1604, 1324
1425247425005318,1591, 1290
1425247425016329,1567, 1255
1425247425027320,1543, 1218
1425247425038304,1511, 1180
1425247425049327,1471, 1141
1425247425060380,1425, 1101
1425247425071315,1377, 1060
1425247425082274,1319, 1019
1425247425093231,1271, 977
1425247425104316,1220, 934
1425247425115417,1170, 892
1425247425125836,1118, 849
1425247425136916,1061, 806
1425247425147877,1003, 764
1425247425158871,949, 723
1425247425169893,898, 682
1425247425180858,846, 642
1425247425192118,792, 603
1425247425203249,740, 565
1425247425214196,689, 528
1425247425225219,645, 493
1425247425236223,601, 459
1425247425247414,556, 427
1425247425258609,513, 397
1425247425269749,472, 369
1425247425280738,438, 343
1425247425291575,396, 319
1425247425301623,370, 297
1425247425312763,338, 278
1425247425323884,307, 261
1425247425334812,282, 246
1425247425345923,257, 234
1425247425356878,237, 225
1425247425367888,225, 218
1425247425378921,209, 214
1425247425389871,193, 213
1425247425400893,184, 214
1425247425411970,180, 218
1425247425422921,180, 225
1425247425434028,179, 234
1425247425445113,179, 246
1425247425456067,179, 261
1425247425467041,180, 278
1425247425477996,179, 297
1425247425488977,179, 319
1425247425499983,179, 343
1425247425510983,180, 369
1425247425521998,180, 397
1425247425533046,178, 427
1425247425544026,183, 459
1425247425555139,193, 493
1425247425566277,210, 528
1425247425577267,230, 565
1425247425588524,267, 603
1425247425599592,295, 642
1425247425610593,333, 682
1425247425621654,386, 723
1425247425632768,442, 764
1425247425643708,496, 806
1425247425654765,554, 849
1425247425665836,612, 891
1425247425676807,669, 934
1425247425687915,723, 976
1425247425698978,779, 1019
1425247425709953,834, 1060
1425247425720964,879, 1101
1425247425731903,934, 1141
1425247425742898,988, 1180
1425247425754012,1043, 1218
1425247425764980,1094, 1255
1425247425776052,1142, 1290
1425247425787090,1192, 1324
1425247425798087,1237, 1356
1425247425809094,1278, 1386
1425247425820153,1318, 1414
1425247425831142,1357, 1440
1425247425842229,1391, 1464
1425247425853312,1426, 1486
1425247425864343,1455, 1505
1425247425875478,1484, 1522
1425247425886552,1508, 1537
1425247425897506,1529, 1549
1425247425908784,1548, 1558
1425247425919906,1567, 1565
1425247425930895,1584, 1569
1425247425941989,1593, 1570
1425247425953024,1596, 1569
1425247425963938,1605, 1565
1425247425975046,1609, 1558
1425247425986132,1611, 1549
1425247425997115,1611, 1537
1425247426008172,1611, 1522
1425247426019250,1611, 1505
1425247426030253,1611, 1486
1425247426041265,1611, 1464
1425247426052217,1611, 1440
1425247426063216,1609, 1414
1425247426074334,1611, 1386
1425247426085280,1609, 1356
1425247426096278,1602, 1324
1425247426107389,1591, 1290
1425247426118363,1565, 1255
1425247426129372,1542, 1218
1425247426140441,1510, 1180
1425247426151362,1471, 1141
1425247426162434,1427, 1101
1425247426173550,1374, 1060
1425247426184535,1324, 1019
1425247426195027,1271, 977
1425247426206042,1222, 934
1425247426217182,1169, 892
1425247426228244,1111, 849
1425247426239136,1057, 806
1425247426250218,999, 764
1425247426261456,947, 723
1425247426272457,898, 682
1425247426283445,845, 642
1425247426294382,793, 603
1425247426305374,743, 565
1425247426316380,690, 528
1425247426327342,646, 493
1425247426338340,597, 459
1425247426349414,553, 427
1425247426360364,519, 397
1425247426371341,476, 369
1425247426382276,437, 343
1425247426393294,401, 319
1425247426404411,366, 297
1425247426415335,335, 278
1425247426426379,306, 261
1425247426437397,283, 246
1425247426448367,258, 234
1425247426459451,238, 225
1425247426470581,222, 218
1425247426481562,208, 214
1425247426492666,193, 213
1425247426503737,183, 214
1425247426514702,181, 218
1425247426525824,181, 225
1425247426536894,179, 234
1425247426547853,179, 246
1425247426558840,179, 261
1425247426569775,179, 278
1425247426580786,179, 297
1425247426592007,178, 319
1425247426602994,179, 343
1425247426614007,178, 369
1425247426625117,178, 397
1425247426636055,179, 427
1425247426647091,183, 459
1425247426658158,192, 493
1425247426669151,209, 528
1425247426680182,231, 565
1425247426691248,262, 603
1425247426702184,295, 642
1425247426713303,336, 682
1425247426724353,388, 723
1425247426735343,442, 764
1425247426746367,497, 806
1425247426757691,556, 849
1425247426768892,617, 891
1425247426780005,670, 934
1425247426790928,724, 976
1425247426801018,775, 1019
1425247426812244,829, 1060
1425247426823325,885, 1101
1425247426834467,937, 1141
1425247426845561,990, 1180
1425247426856544,1044, 1218
1425247426867645,1091, 1255
1425247426878733,1140, 1290
1425247426889714,1191, 1324
1425247426900833,1235, 1356
1425247426912010,1282, 1386
1425247426923041,1320, 1414
1425247426934121,1357, 1440
1425247426945219,1395, 1464
1425247426956144,1426, 1486
1425247426967270,1452, 1505
1425247426978362,1484, 1522
1425247426989272,1508, 1537
1425247427000230,1530, 1549
1425247427011197,1549, 1558
1425247427022187,1564, 1565
1425247427033188,1584, 1569
1425247427044153,1595, 1570
1425247427055158,1599, 1569
1425247427066253,1607, 1565
1425247427077219,1610, 1558
1425247427088343,1610, 1549
1425247427099422,1611, 1537
1425247427110337,1611, 1522
1425247427121328,1611, 1505
1425247427132259,1611, 1486
1425247427143282,1611, 1464
1425247427154462,1610, 1440
1425247427165376,1609, 1414
1425247427176388,1611, 1386
1425247427187399,1608, 1356
1425247427198319,1602, 1324
1425247427209405,1591, 1290
1425247427220467,1567, 1255
1425247427231425,1543, 1218
1425247427242423,1509, 1180
1425247427253299,1471, 1141
1425247427263789,1425, 1101
1425247427274756,1386, 1060
1425247427284870,1328, 1019
1425247427295884,1274, 977
1425247427306916,1218, 934
1425247427317842,1163, 892
1425247427329016,1111, 849
1425247427340062,1055, 806
1425247427351019,1009, 764
1425247427362044,949, 723
1425247427373249,889, 682
1425247427384211,838, 642
1425247427395225,791, 603
1425247427406232,743, 565
1425247427417215,688, 528
1425247427428302,639, 493
1425247427439350,597, 459
1425247427450288,555, 427
1425247427461397,517, 397
1425247427472453,476, 369
1425247427483406,436, 343
1425247427494369,401, 319
1425247427505331,367, 297
1425247427516411,335, 278
1425247427527538,307, 261
1425247427538432,279, 246
1425247427549500,259, 234
1425247427560523,239, 225
1425247427571524,223, 218
1425247427582588,205, 214
1425247427593860,194, 213
1425247427604821,185, 214
1425247427615849,182, 218
1425247427626847,181, 225
1425247427637769,179, 234
1425247427648849,179, 246
1425247427659945,179, 261
1425247427670979,180, 278
1425247427682109,178, 297
1425247427693210,179, 319
1425247427704189,179, 343
1425247427715267,179, 369
1425247427726338,179, 397
1425247427737312,179, 427
1425247427754074,183, 459
1425247427765695,196, 493
1425247427779565,212, 528
1425247427791094,234, 565
1425247427803123,262, 603
1425247427816467,292, 642
1425247427826203,345, 682
1425247427836287,393, 723
1425247427847463,442, 764
1425247427858470,494, 806
1425247427869604,555, 849
1425247427880686,611, 891
1425247427891631,669, 934
1425247427902618,724, 976
1425247427913781,780, 1019
1425247427924814,835, 1060
1425247427935944,885, 1101
1425247427947045,934, 1141
1425247427958024,987, 1180
1425247427969095,1039, 1218
1425247427980232,1093, 1255
1425247427991210,1143, 1290
1425247428002246,1191, 1324
1425247428013327,1235, 1356
1425247428024258,1277, 1386
1425247428035366,1318, 1414
1425247428046302,1359, 1440
1425247428057367,1394, 1464
1425247428068483,1426, 1486
1425247428079430,1453, 1505
1425247428090454,1481, 1522
1425247428101505,1507, 1537
1425247428112452,1528, 1549
1425247428123537,1546, 1558
1425247428134608,1567, 1565
1425247428145573,1585, 1569
1425247428156653,1593, 1570
1425247428167769,1597, 1569
1425247428178706,1604, 1565
1425247428189714,1610, 1558
1425247428200656,1611, 1549
1425247428211672,1611, 1537
1425247428222778,1611, 1522
1425247428233738,1610, 1505
1425247428244744,1609, 1486
1425247428255760,1611, 1464
1425247428266779,1611, 1440
1425247428277901,1611, 1414
1425247428290176,1610, 1386
1425247428300308,1609, 1356
1425247428311469,1604, 1324
1425247428322571,1589, 1290
1425247428333130,1567, 1255
1425247428344223,1544, 1218
1425247428355329,1510, 1180
1425247428366261,1469, 1141
1425247428377370,1425, 1101
1425247428388452,1375, 1060
1425247428399698,1320, 1019
1425247428410767,1269, 977
1425247428421770,1219, 934
1425247428432694,1165, 892
1425247428443774,1110, 849
1425247428454859,1056, 806
1425247428465833,996, 764
1425247428476814,948, 723
1425247428487763,898, 682
1425247428498751,845, 642
1425247428509737,785, 603
1425247428520690,740, 565
1425247428531744,694, 528
1425247428542821,648, 493
1425247428553764,601, 459
1425247428564753,555, 427
1425247428575939,512, 397
1425247428587006,475, 369
1425247428598139,439, 343
1425247428609215,402, 319
1425247428620210,366, 297
1425247428631326,335, 278
1425247428642409,307, 261
1425247428653362,282, 246
1